("Natura" "Natura")
("Natura Elite" "Natura Elite")
("Balance" "Balance")
("Soft" "Soft")
("Freedom" "Freedom")
("Legend" "Legend")
("Skyline" "Skyline")
("Joy" "Joy")
("Grace" "Grace")
("Sawoy" "Sawoy")
("Neo" "Neo")
("NeoPlus" "Neo Plus")
("Infinity" "Infinity")
("FrameSlim" "Frame Slim")
("Frame" "Frame ")
("ALU" "ALU")
